i3c/sim/dump.vcd
$date
	Fri Aug 22 00:48:59 2025
$end
$version
	Questa Intel Starter FPGA Edition Version 2023.3
$end
$timescale
	1ns
$end

$scope module tb $end

$scope module i3c_top_inst $end
$var wire 1 ! clk_apb $end
$var wire 1 " rst_n $end
$var wire 1 # scl_bus $end
$var wire 1 $ sda_bus $end
$var wire 1 % psel $end
$var wire 1 & pwrite $end
$var wire 1 ' penable $end
$var wire 1 ( paddr [11] $end
$var wire 1 ) paddr [10] $end
$var wire 1 * paddr [9] $end
$var wire 1 + paddr [8] $end
$var wire 1 , paddr [7] $end
$var wire 1 - paddr [6] $end
$var wire 1 . paddr [5] $end
$var wire 1 / paddr [4] $end
$var wire 1 0 paddr [3] $end
$var wire 1 1 paddr [2] $end
$var wire 1 2 paddr [1] $end
$var wire 1 3 paddr [0] $end
$var wire 1 4 pwdata [31] $end
$var wire 1 5 pwdata [30] $end
$var wire 1 6 pwdata [29] $end
$var wire 1 7 pwdata [28] $end
$var wire 1 8 pwdata [27] $end
$var wire 1 9 pwdata [26] $end
$var wire 1 : pwdata [25] $end
$var wire 1 ; pwdata [24] $end
$var wire 1 < pwdata [23] $end
$var wire 1 = pwdata [22] $end
$var wire 1 > pwdata [21] $end
$var wire 1 ? pwdata [20] $end
$var wire 1 @ pwdata [19] $end
$var wire 1 A pwdata [18] $end
$var wire 1 B pwdata [17] $end
$var wire 1 C pwdata [16] $end
$var wire 1 D pwdata [15] $end
$var wire 1 E pwdata [14] $end
$var wire 1 F pwdata [13] $end
$var wire 1 G pwdata [12] $end
$var wire 1 H pwdata [11] $end
$var wire 1 I pwdata [10] $end
$var wire 1 J pwdata [9] $end
$var wire 1 K pwdata [8] $end
$var wire 1 L pwdata [7] $end
$var wire 1 M pwdata [6] $end
$var wire 1 N pwdata [5] $end
$var wire 1 O pwdata [4] $end
$var wire 1 P pwdata [3] $end
$var wire 1 Q pwdata [2] $end
$var wire 1 R pwdata [1] $end
$var wire 1 S pwdata [0] $end
$var wire 1 T prdata [31] $end
$var wire 1 U prdata [30] $end
$var wire 1 V prdata [29] $end
$var wire 1 W prdata [28] $end
$var wire 1 X prdata [27] $end
$var wire 1 Y prdata [26] $end
$var wire 1 Z prdata [25] $end
$var wire 1 [ prdata [24] $end
$var wire 1 \ prdata [23] $end
$var wire 1 ] prdata [22] $end
$var wire 1 ^ prdata [21] $end
$var wire 1 _ prdata [20] $end
$var wire 1 ` prdata [19] $end
$var wire 1 a prdata [18] $end
$var wire 1 b prdata [17] $end
$var wire 1 c prdata [16] $end
$var wire 1 d prdata [15] $end
$var wire 1 e prdata [14] $end
$var wire 1 f prdata [13] $end
$var wire 1 g prdata [12] $end
$var wire 1 h prdata [11] $end
$var wire 1 i prdata [10] $end
$var wire 1 j prdata [9] $end
$var wire 1 k prdata [8] $end
$var wire 1 l prdata [7] $end
$var wire 1 m prdata [6] $end
$var wire 1 n prdata [5] $end
$var wire 1 o prdata [4] $end
$var wire 1 p prdata [3] $end
$var wire 1 q prdata [2] $end
$var wire 1 r prdata [1] $end
$var wire 1 s prdata [0] $end
$var wire 1 t pready $end
$var wire 1 u rd_en $end
$var wire 1 v wr_en $end
$var wire 1 w i3c_rx_data [7] $end
$var wire 1 x i3c_rx_data [6] $end
$var wire 1 y i3c_rx_data [5] $end
$var wire 1 z i3c_rx_data [4] $end
$var wire 1 { i3c_rx_data [3] $end
$var wire 1 | i3c_rx_data [2] $end
$var wire 1 } i3c_rx_data [1] $end
$var wire 1 ~ i3c_rx_data [0] $end
$var wire 1 !! i3c_tx_data [7] $end
$var wire 1 "! i3c_tx_data [6] $end
$var wire 1 #! i3c_tx_data [5] $end
$var wire 1 $! i3c_tx_data [4] $end
$var wire 1 %! i3c_tx_data [3] $end
$var wire 1 &! i3c_tx_data [2] $end
$var wire 1 '! i3c_tx_data [1] $end
$var wire 1 (! i3c_tx_data [0] $end
$var wire 1 )! dynamic_address [6] $end
$var wire 1 *! dynamic_address [5] $end
$var wire 1 +! dynamic_address [4] $end
$var wire 1 ,! dynamic_address [3] $end
$var wire 1 -! dynamic_address [2] $end
$var wire 1 .! dynamic_address [1] $end
$var wire 1 /! dynamic_address [0] $end
$var wire 1 0! i3c_sdr_private_detect $end
$var wire 1 1! i3c_rd_en $end
$var wire 1 2! i3c_wr_en $end
$var wire 1 3! i3c_en $end
$var wire 1 4! i3c_rx_ready $end
$var wire 1 5! i3c_tx_ready $end
$var wire 1 6! busy_wire $end
$var wire 1 7! start_detected $end
$var wire 1 8! stop_detected $end
$var wire 1 9! edge_detect $end
$var wire 1 :! i3c_sdr_sr_detect $end

$scope module apb_slave_inst $end
$var wire 1 ! clk $end
$var wire 1 % psel $end
$var wire 1 & pwrite $end
$var wire 1 ' penable $end
$var wire 1 t pready $end
$var reg 1 ;! wr_en $end
$var reg 1 <! rd_en $end
$upscope $end

$scope module i3c_regfile_inst $end
$var parameter 12 =! ADDR_STATUS $end
$var parameter 12 >! ADDR_CTRL $end
$var parameter 12 ?! ADDR_TXDA $end
$var parameter 12 @! ADDR_RXDA $end
$var parameter 12 A! ADDR_DA $end
$var wire 1 ! clk $end
$var wire 1 " rst_n $end
$var wire 1 ( addr [11] $end
$var wire 1 ) addr [10] $end
$var wire 1 * addr [9] $end
$var wire 1 + addr [8] $end
$var wire 1 , addr [7] $end
$var wire 1 - addr [6] $end
$var wire 1 . addr [5] $end
$var wire 1 / addr [4] $end
$var wire 1 0 addr [3] $end
$var wire 1 1 addr [2] $end
$var wire 1 2 addr [1] $end
$var wire 1 3 addr [0] $end
$var wire 1 4 wdata [31] $end
$var wire 1 5 wdata [30] $end
$var wire 1 6 wdata [29] $end
$var wire 1 7 wdata [28] $end
$var wire 1 8 wdata [27] $end
$var wire 1 9 wdata [26] $end
$var wire 1 : wdata [25] $end
$var wire 1 ; wdata [24] $end
$var wire 1 < wdata [23] $end
$var wire 1 = wdata [22] $end
$var wire 1 > wdata [21] $end
$var wire 1 ? wdata [20] $end
$var wire 1 @ wdata [19] $end
$var wire 1 A wdata [18] $end
$var wire 1 B wdata [17] $end
$var wire 1 C wdata [16] $end
$var wire 1 D wdata [15] $end
$var wire 1 E wdata [14] $end
$var wire 1 F wdata [13] $end
$var wire 1 G wdata [12] $end
$var wire 1 H wdata [11] $end
$var wire 1 I wdata [10] $end
$var wire 1 J wdata [9] $end
$var wire 1 K wdata [8] $end
$var wire 1 L wdata [7] $end
$var wire 1 M wdata [6] $end
$var wire 1 N wdata [5] $end
$var wire 1 O wdata [4] $end
$var wire 1 P wdata [3] $end
$var wire 1 Q wdata [2] $end
$var wire 1 R wdata [1] $end
$var wire 1 S wdata [0] $end
$var wire 1 v wr_en $end
$var wire 1 u rd_en $end
$var reg 32 B! rdata [31:0] $end
$var wire 1 w i3c_rx_data [7] $end
$var wire 1 x i3c_rx_data [6] $end
$var wire 1 y i3c_rx_data [5] $end
$var wire 1 z i3c_rx_data [4] $end
$var wire 1 { i3c_rx_data [3] $end
$var wire 1 | i3c_rx_data [2] $end
$var wire 1 } i3c_rx_data [1] $end
$var wire 1 ~ i3c_rx_data [0] $end
$var wire 1 5! i3c_tx_ready $end
$var wire 1 4! i3c_rx_ready $end
$var reg 8 C! i3c_tx_data [7:0] $end
$var wire 1 )! dynamic_address [6] $end
$var wire 1 *! dynamic_address [5] $end
$var wire 1 +! dynamic_address [4] $end
$var wire 1 ,! dynamic_address [3] $end
$var wire 1 -! dynamic_address [2] $end
$var wire 1 .! dynamic_address [1] $end
$var wire 1 /! dynamic_address [0] $end
$var wire 1 1! i3c_rd_en $end
$var wire 1 2! i3c_wr_en $end
$var wire 1 3! i3c_en $end
$var wire 1 6! busy_wire $end
$var reg 8 D! data_tx_reg [7:0] $end
$var reg 8 E! data_rx_reg [7:0] $end
$var reg 7 F! DA_reg [6:0] $end
$var reg 1 G! tx_empty $end
$var reg 1 H! rx_full $end
$var reg 1 I! busy $end
$var reg 1 J! en $end
$var reg 1 K! en_ack $end
$upscope $end

$scope module start_stop_detector_inst $end
$var wire 1 ! clk $end
$var wire 1 " rst_n $end
$var wire 1 $ sda_in $end
$var wire 1 # scl_in $end
$var reg 1 L! start_detected $end
$var reg 1 M! stop_detected $end
$var wire 1 9! edge_detect $end
$var wire 1 3! i3c_en $end
$var reg 2 N! sda_sync [1:0] $end
$var reg 2 O! scl_sync [1:0] $end
$upscope $end

$scope module i3c_sdr_dectect_inst $end
$var parameter 7 P! BROADCAST_ADDR $end
$var parameter 4 Q! IDLE $end
$var parameter 4 R! BROADCAST $end
$var parameter 4 S! RW_BIT $end
$var parameter 4 T! ACK_BIT $end
$var parameter 4 U! STOP $end
$var wire 1 ! clk $end
$var wire 1 " rst_n $end
$var wire 1 # scl $end
$var wire 1 $ sda $end
$var wire 1 8! stop_detected $end
$var wire 1 7! start_detected $end
$var wire 1 9! scl_rising $end
$var wire 1 0! i3c_sdr_private_detect $end
$var reg 4 V! state [3:0] $end
$var reg 4 W! next_state [3:0] $end
$var reg 7 X! broadcast_addr [6:0] $end
$var reg 1 Y! rw_sel $end
$var reg 1 Z! sda_en $end
$var reg 1 [! sda_wdata $end
$var reg 4 \! bit_cnt [3:0] $end
$var reg 8 ]! shift_reg [7:0] $end
$upscope $end

$scope module SM_sdr_private_inst $end
$var parameter 5 ^! IDLE $end
$var parameter 5 _! Sr_START $end
$var parameter 5 `! RW_BIT $end
$var parameter 5 a! ADDR $end
$var parameter 5 b! DATA $end
$var parameter 5 c! ACK_BIT $end
$var parameter 5 d! STOP $end
$var parameter 5 e! T_BIT $end
$var wire 1 ! clk $end
$var wire 1 " rst_n $end
$var wire 1 # scl $end
$var wire 1 $ sda $end
$var wire 1 8! stop_detected $end
$var wire 1 9! scl_rising $end
$var wire 1 7! start_detect $end
$var wire 1 )! dynamic_address_wire [6] $end
$var wire 1 *! dynamic_address_wire [5] $end
$var wire 1 +! dynamic_address_wire [4] $end
$var wire 1 ,! dynamic_address_wire [3] $end
$var wire 1 -! dynamic_address_wire [2] $end
$var wire 1 .! dynamic_address_wire [1] $end
$var wire 1 /! dynamic_address_wire [0] $end
$var reg 8 f! wdata [7:0] $end
$var wire 1 !! rdata [7] $end
$var wire 1 "! rdata [6] $end
$var wire 1 #! rdata [5] $end
$var wire 1 $! rdata [4] $end
$var wire 1 %! rdata [3] $end
$var wire 1 &! rdata [2] $end
$var wire 1 '! rdata [1] $end
$var wire 1 (! rdata [0] $end
$var wire 1 0! i3c_sdr_sr_detect $end
$var wire 1 2! i3c_wr_en $end
$var wire 1 1! i3c_rd_en $end
$var wire 1 5! i3c_tx_ready $end
$var wire 1 4! i3c_rx_ready $end
$var wire 1 6! busy_wire $end
$var reg 5 g! state [4:0] $end
$var reg 5 h! next_state [4:0] $end
$var reg 4 i! bit_cnt [3:0] $end
$var reg 8 j! shift_reg [7:0] $end
$var reg 1 k! rw_sel $end
$var reg 1 l! sda_out $end
$var reg 1 m! sda_en $end
$var reg 7 n! addr [6:0] $end
$upscope $end
$upscope $end
$upscope $end
$enddefinitions $end
#0
$dumpvars
0;!
0<!
b0 B!
b0 C!
b0 D!
b0 E!
b1110111 F!
1G!
0H!
0I!
0J!
0K!
0L!
0M!
b11 N!
b11 O!
b0 V!
b0 W!
b0 X!
0Y!
0Z!
0[!
b0 \!
b0 ]!
b0 f!
b0 g!
b0 h!
b0 i!
b0 j!
0k!
1l!
0m!
b0 n!
b0 =!
b100 >!
b1000 ?!
b1100 @!
b10000 A!
b1111110 P!
b0 Q!
b1 R!
b11 S!
b100 T!
b101 U!
b0 ^!
b1 _!
b10 `!
b11 a!
b100 b!
b101 c!
b110 d!
b111 e!
1$
0s
0r
0q
0p
0o
0n
0m
0l
0k
0j
0i
0h
0g
0f
0e
0d
0c
0b
0a
0`
0_
0^
0]
0\
0[
0Z
0Y
0X
0W
0V
0U
0T
1t
0u
0v
0~
0}
0|
0{
0z
0y
0x
0w
0(!
0'!
0&!
0%!
0$!
0#!
0"!
0!!
1/!
1.!
1-!
0,!
1+!
1*!
1)!
00!
01!
02!
03!
14!
05!
06!
07!
08!
09!
z:!
0S
0R
0Q
0P
0O
0N
0M
0L
0K
0J
0I
0H
0G
0F
0E
0D
0C
0B
0A
0@
0?
0>
0=
0<
0;
0:
09
08
07
06
05
04
03
02
01
00
0/
0.
0-
0,
0+
0*
0)
0(
0'
0&
0%
1#
0"
0!
$end
#5
1!
#10
1"
0!
#15
1!
#20
0!
#25
1!
#30
0!
#35
1!
#36
1S
11
1%
1&
#40
0!
#45
1!
#46
1'
1;!
1v
#50
0!
#55
1!
1J!
13!
1K!
#56
0%
0&
0'
0;!
0v
#60
0!
#65
1!
#66
1R
1Q
1P
1O
1N
1M
1L
01
10
1%
1&
#70
0!
#75
1!
#76
1'
1;!
1v
#80
0!
#85
1!
b11111111 D!
0G!
15!
b11111111 C!
1(!
1'!
1&!
1%!
1$!
1#!
1"!
1!!
#86
0%
0&
0'
0;!
0v
#90
0!
#95
1!
00
1%
#100
0!
#105
1!
1'
1<!
1u
b1 B!
1s
#110
0!
#115
1!
0%
0'
0<!
0u
b0 B!
0s
#120
0!
#125
1!
11
1%
#130
0!
#135
1!
1'
1<!
1u
b1 B!
1s
#140
0!
#145
1!
0%
0'
0<!
0u
b0 B!
0s
#150
0!
#155
1!
01
10
1%
#160
0!
#165
1!
1'
1<!
1u
b11111111 B!
1s
1r
1q
1p
1o
1n
1m
1l
#170
0!
#175
1!
0%
0'
0<!
0u
b0 B!
0s
0r
0q
0p
0o
0n
0m
0l
#180
0!
#185
1!
#190
0!
#195
1!
#200
0!
#205
1!
#210
0!
#215
1!
#220
0!
#225
1!
#230
0!
#235
1!
#240
0!
#241
0$
#245
1!
#250
0!
b10 N!
#255
1!
#260
0!
b0 N!
1L!
17!
b1 W!
#265
1!
b1 V!
#270
0!
0#
0L!
07!
#275
1!
#280
0!
b10 O!
#285
1!
#290
0!
b0 O!
#295
1!
#300
0!
#301
1$
#305
1!
#310
0!
b1 N!
#315
1!
#320
0!
b11 N!
#325
1!
#330
0!
1#
#335
1!
#340
0!
b1 O!
19!
#345
1!
b1 X!
b1 \!
#350
0!
b11 O!
09!
#355
1!
#360
0!
#365
1!
#370
0!
#375
1!
#380
0!
#385
1!
#390
0!
0#
#395
1!
#400
0!
b10 O!
#405
1!
#410
0!
b0 O!
#415
1!
#420
0!
#425
1!
#430
0!
#435
1!
#440
0!
#445
1!
#450
0!
1#
#455
1!
#460
0!
b1 O!
19!
#465
1!
b11 X!
b10 \!
#470
0!
b11 O!
09!
#475
1!
#480
0!
#485
1!
#490
0!
#495
1!
#500
0!
#505
1!
#510
0!
0#
#515
1!
#520
0!
b10 O!
#525
1!
#530
0!
b0 O!
#535
1!
#540
0!
#545
1!
#550
0!
#555
1!
#560
0!
#565
1!
#570
0!
1#
#575
1!
#580
0!
b1 O!
19!
#585
1!
b111 X!
b11 \!
#590
0!
b11 O!
09!
#595
1!
#600
0!
#605
1!
#610
0!
#615
1!
#620
0!
#625
1!
#630
0!
0#
#635
1!
#640
0!
b10 O!
#645
1!
#650
0!
b0 O!
#655
1!
#660
0!
#665
1!
#670
0!
#675
1!
#680
0!
#685
1!
#690
0!
1#
#695
1!
#700
0!
b1 O!
19!
#705
1!
b1111 X!
b100 \!
#710
0!
b11 O!
09!
#715
1!
#720
0!
#725
1!
#730
0!
#735
1!
#740
0!
#745
1!
#750
0!
0#
#755
1!
#760
0!
b10 O!
#765
1!
#770
0!
b0 O!
#775
1!
#780
0!
#785
1!
#790
0!
#795
1!
#800
0!
#805
1!
#810
0!
1#
#815
1!
#820
0!
b1 O!
19!
#825
1!
b11111 X!
b101 \!
#830
0!
b11 O!
09!
#835
1!
#840
0!
#845
1!
#850
0!
#855
1!
#860
0!
#865
1!
#870
0!
0#
#875
1!
#880
0!
b10 O!
#885
1!
#890
0!
b0 O!
#895
1!
#900
0!
#905
1!
#910
0!
#915
1!
#920
0!
#925
1!
#930
0!
1#
#935
1!
#940
0!
b1 O!
19!
#945
1!
b111111 X!
b110 \!
#950
0!
b11 O!
09!
#955
1!
#960
0!
#965
1!
#970
0!
#975
1!
#980
0!
#985
1!
#990
0!
0#
#995
1!
#1000
0!
b10 O!
#1005
1!
#1010
0!
b0 O!
#1015
1!
#1020
0!
0$
#1025
1!
#1030
0!
b10 N!
#1035
1!
#1040
0!
b0 N!
#1045
1!
#1050
0!
1#
#1055
1!
#1060
0!
b1 O!
19!
#1065
1!
b1111110 X!
b111 \!
b11 W!
#1070
0!
b11 O!
09!
#1075
1!
b11 V!
#1080
0!
#1085
1!
#1090
0!
#1095
1!
#1100
0!
#1105
1!
#1110
0!
0#
#1115
1!
#1120
0!
b10 O!
#1125
1!
#1130
0!
b0 O!
#1135
1!
#1140
0!
#1145
1!
#1150
0!
#1155
1!
#1160
0!
#1165
1!
#1170
0!
1#
#1175
1!
#1180
0!
b1 O!
19!
b100 W!
#1185
1!
b100 V!
#1190
0!
b11 O!
09!
#1195
1!
1Z!
#1200
0!
#1205
1!
#1210
0!
#1215
1!
#1220
0!
#1225
1!
#1230
0!
0#
#1235
1!
#1240
0!
b10 O!
#1245
1!
#1250
0!
b0 O!
#1255
1!
#1260
0!
#1265
1!
#1270
0!
#1275
1!
#1280
0!
#1285
1!
#1290
0!
1#
#1295
1!
#1300
0!
b1 O!
19!
b101 W!
#1305
1!
b101 V!
10!
#1310
0!
b11 O!
09!
#1315
1!
b0 \!
0Z!
#1320
0!
#1325
1!
#1330
0!
#1335
1!
#1340
0!
#1345
1!
#1350
0!
0#
#1355
1!
#1360
0!
b10 O!
#1365
1!
#1370
0!
b0 O!
#1375
1!
#1380
0!
#1381
1$
#1385
1!
#1390
0!
b1 N!
#1395
1!
#1400
0!
b11 N!
#1405
1!
#1410
0!
1#
#1415
1!
#1420
0!
b1 O!
19!
#1425
1!
#1430
0!
b11 O!
09!
#1435
1!
#1440
0!
#1441
0$
#1445
1!
#1450
0!
b10 N!
#1455
1!
#1460
0!
b0 N!
1L!
17!
b11 h!
#1465
1!
b11 g!
16!
1I!
#1470
0!
0#
0L!
07!
#1475
1!
#1480
0!
b10 O!
#1485
1!
#1490
0!
b0 O!
#1495
1!
#1500
0!
1$
#1505
1!
#1510
0!
b1 N!
#1515
1!
#1520
0!
b11 N!
#1525
1!
#1530
0!
1#
#1535
1!
#1540
0!
b1 O!
19!
#1545
1!
b1 n!
b1 i!
#1550
0!
b11 O!
09!
#1555
1!
#1560
0!
#1565
1!
#1570
0!
#1575
1!
#1580
0!
#1585
1!
#1590
0!
0#
#1595
1!
#1600
0!
b10 O!
#1605
1!
#1610
0!
b0 O!
#1615
1!
#1620
0!
#1625
1!
#1630
0!
#1635
1!
#1640
0!
#1645
1!
#1650
0!
1#
#1655
1!
#1660
0!
b1 O!
19!
#1665
1!
b11 n!
b10 i!
#1670
0!
b11 O!
09!
#1675
1!
#1680
0!
#1685
1!
#1690
0!
#1695
1!
#1700
0!
#1705
1!
#1710
0!
0#
#1715
1!
#1720
0!
b10 O!
#1725
1!
#1730
0!
b0 O!
#1735
1!
#1740
0!
#1745
1!
#1750
0!
#1755
1!
#1760
0!
#1765
1!
#1770
0!
1#
#1775
1!
#1780
0!
b1 O!
19!
#1785
1!
b111 n!
b11 i!
#1790
0!
b11 O!
09!
#1795
1!
#1800
0!
#1805
1!
#1810
0!
#1815
1!
#1820
0!
#1825
1!
#1830
0!
0#
#1835
1!
#1840
0!
b10 O!
#1845
1!
#1850
0!
b0 O!
#1855
1!
#1860
0!
0$
#1865
1!
#1870
0!
b10 N!
#1875
1!
#1880
0!
b0 N!
#1885
1!
#1890
0!
1#
#1895
1!
#1900
0!
b1 O!
19!
#1905
1!
b1110 n!
b100 i!
#1910
0!
b11 O!
09!
#1915
1!
#1920
0!
#1925
1!
#1930
0!
#1935
1!
#1940
0!
#1945
1!
#1950
0!
0#
#1955
1!
#1960
0!
b10 O!
#1965
1!
#1970
0!
b0 O!
#1975
1!
#1980
0!
1$
#1985
1!
#1990
0!
b1 N!
#1995
1!
#2000
0!
b11 N!
#2005
1!
#2010
0!
1#
#2015
1!
#2020
0!
b1 O!
19!
#2025
1!
b11101 n!
b101 i!
#2030
0!
b11 O!
09!
#2035
1!
#2040
0!
#2045
1!
#2050
0!
#2055
1!
#2060
0!
#2065
1!
#2070
0!
0#
#2075
1!
#2080
0!
b10 O!
#2085
1!
#2090
0!
b0 O!
#2095
1!
#2100
0!
#2105
1!
#2110
0!
#2115
1!
#2120
0!
#2125
1!
#2130
0!
1#
#2135
1!
#2140
0!
b1 O!
19!
#2145
1!
b111011 n!
b110 i!
#2150
0!
b11 O!
09!
#2155
1!
#2160
0!
#2165
1!
#2170
0!
#2175
1!
#2180
0!
#2185
1!
#2190
0!
0#
#2195
1!
#2200
0!
b10 O!
#2205
1!
#2210
0!
b0 O!
#2215
1!
#2220
0!
#2225
1!
#2230
0!
#2235
1!
#2240
0!
#2245
1!
#2250
0!
1#
#2255
1!
#2260
0!
b1 O!
19!
#2265
1!
b1110111 n!
b111 i!
b10 h!
#2270
0!
b11 O!
09!
#2275
1!
b10 g!
#2280
0!
#2285
1!
#2290
0!
#2295
1!
#2300
0!
#2305
1!
#2310
0!
0#
#2315
1!
#2320
0!
b10 O!
#2325
1!
#2330
0!
b0 O!
#2335
1!
#2340
0!
#2345
1!
#2350
0!
#2355
1!
#2360
0!
#2365
1!
#2370
0!
1#
#2375
1!
#2380
0!
b1 O!
19!
b101 h!
#2385
1!
b101 g!
1k!
#2390
0!
b11 O!
09!
#2395
1!
b0 i!
#2400
0!
#2405
1!
#2410
0!
#2415
1!
#2420
0!
#2425
1!
#2430
0!
0#
1m!
0l!
0$
#2435
1!
#2440
0!
b10 N!
b10 O!
#2445
1!
#2450
0!
b0 N!
b0 O!
#2455
1!
#2460
0!
#2465
1!
#2470
0!
#2475
1!
#2480
0!
#2485
1!
#2490
0!
1#
#2495
1!
#2500
0!
b1 O!
19!
b100 h!
#2505
1!
b100 g!
#2510
0!
b11 O!
09!
#2515
1!
#2520
0!
#2525
1!
#2530
0!
#2535
1!
#2540
0!
#2545
1!
#2550
0!
0#
1l!
1$
#2555
1!
#2560
0!
b1 N!
b10 O!
#2565
1!
#2570
0!
b11 N!
b0 O!
#2575
1!
#2580
0!
#2585
1!
#2590
0!
#2595
1!
#2600
0!
#2605
1!
#2610
0!
1#
#2615
1!
#2620
0!
b1 O!
19!
#2625
1!
b1 i!
#2630
0!
b11 O!
09!
#2635
1!
#2640
0!
#2645
1!
#2650
0!
#2655
1!
#2660
0!
#2665
1!
#2670
0!
0#
#2675
1!
#2680
0!
b10 O!
#2685
1!
#2690
0!
b0 O!
#2695
1!
#2700
0!
#2705
1!
#2710
0!
#2715
1!
#2720
0!
#2725
1!
#2730
0!
1#
#2735
1!
#2740
0!
b1 O!
19!
#2745
1!
b10 i!
#2750
0!
b11 O!
09!
#2755
1!
#2760
0!
#2765
1!
#2770
0!
#2775
1!
#2780
0!
#2785
1!
#2790
0!
0#
#2795
1!
#2800
0!
b10 O!
#2805
1!
#2810
0!
b0 O!
#2815
1!
#2820
0!
#2825
1!
#2830
0!
#2835
1!
#2840
0!
#2845
1!
#2850
0!
1#
#2855
1!
#2860
0!
b1 O!
19!
#2865
1!
b11 i!
#2870
0!
b11 O!
09!
#2875
1!
#2880
0!
#2885
1!
#2890
0!
#2895
1!
#2900
0!
#2905
1!
#2910
0!
0#
#2915
1!
#2920
0!
b10 O!
#2925
1!
#2930
0!
b0 O!
#2935
1!
#2940
0!
#2945
1!
#2950
0!
#2955
1!
#2960
0!
#2965
1!
#2970
0!
1#
#2975
1!
#2980
0!
b1 O!
19!
#2985
1!
b100 i!
#2990
0!
b11 O!
09!
#2995
1!
#3000
0!
#3005
1!
#3010
0!
#3015
1!
#3020
0!
#3025
1!
#3030
0!
0#
#3035
1!
#3040
0!
b10 O!
#3045
1!
#3050
0!
b0 O!
#3055
1!
#3060
0!
#3065
1!
#3070
0!
#3075
1!
#3080
0!
#3085
1!
#3090
0!
1#
#3095
1!
#3100
0!
b1 O!
19!
#3105
1!
b101 i!
#3110
0!
b11 O!
09!
#3115
1!
#3120
0!
#3125
1!
#3130
0!
#3135
1!
#3140
0!
#3145
1!
#3150
0!
0#
#3155
1!
#3160
0!
b10 O!
#3165
1!
#3170
0!
b0 O!
#3175
1!
#3180
0!
#3185
1!
#3190
0!
#3195
1!
#3200
0!
#3205
1!
#3210
0!
1#
#3215
1!
#3220
0!
b1 O!
19!
#3225
1!
b110 i!
#3230
0!
b11 O!
09!
#3235
1!
#3240
0!
#3245
1!
#3250
0!
#3255
1!
#3260
0!
#3265
1!
#3270
0!
0#
#3275
1!
#3280
0!
b10 O!
#3285
1!
#3290
0!
b0 O!
#3295
1!
#3300
0!
#3305
1!
#3310
0!
#3315
1!
#3320
0!
#3325
1!
#3330
0!
1#
#3335
1!
#3340
0!
b1 O!
19!
#3345
1!
b111 i!
#3350
0!
b11 O!
09!
#3355
1!
#3360
0!
#3365
1!
#3370
0!
#3375
1!
#3380
0!
#3385
1!
#3390
0!
0#
#3395
1!
#3400
0!
b10 O!
#3405
1!
#3410
0!
b0 O!
#3415
1!
#3420
0!
#3425
1!
#3430
0!
#3435
1!
#3440
0!
#3445
1!
#3450
0!
1#
#3455
1!
#3460
0!
b1 O!
19!
#3465
1!
b1000 i!
b111 h!
#3470
0!
b11 O!
09!
#3475
1!
b111 g!
#3480
0!
#3485
1!
b0 i!
#3490
0!
#3495
1!
#3500
0!
#3505
1!
#3510
0!
0#
0m!
#3515
1!
#3520
0!
b10 O!
#3525
1!
#3530
0!
b0 O!
#3535
1!
#3540
0!
#3545
1!
#3550
0!
#3555
1!
#3560
0!
#3565
1!
#3570
0!
1#
0$
#3575
1!
#3580
0!
b10 N!
b1 O!
19!
b110 h!
#3585
1!
b110 g!
11!
#3590
0!
b0 N!
b11 O!
1L!
09!
17!
#3595
1!
1G!
05!
#3600
0!
0L!
07!
#3605
1!
#3610
0!
#3615
1!
#3620
0!
#3625
1!
#3630
0!
#3635
1!
#3640
0!
#3645
1!
#3650
0!
#3655
1!
#3660
0!
#3661
1$
#3665
1!
#3670
0!
b1 N!
#3675
1!
#3680
0!
b11 N!
1M!
18!
b0 W!
b0 h!
#3685
1!
b0 g!
b0 V!
01!
06!
00!
0I!
#3690
0!
0M!
08!
#3695
1!
#3700
0!
#3705
1!
#3710
0!
#3715
1!
#3720
0!
#3725
1!
#3730
0!
#3735
1!
#3740
0!
#3745
1!
#3750
0!
#3755
1!
#3760
0!
#3765
1!
#3770
0!
#3775
1!
#3780
0!
#3785
1!
#3790
0!
#3795
1!
#3800
0!
#3805
1!
#3810
0!
#3815
1!
#3820
0!
#3825
1!
#3830
0!
#3835
1!
#3840
0!
#3841
0$
#3845
1!
#3850
0!
b10 N!
#3855
1!
#3860
0!
b0 N!
1L!
17!
b1 W!
#3865
1!
b1 V!
#3870
0!
0#
0L!
07!
#3875
1!
#3880
0!
b10 O!
#3885
1!
#3890
0!
b0 O!
#3895
1!
#3900
0!
#3901
1$
#3905
1!
#3910
0!
b1 N!
#3915
1!
#3920
0!
b11 N!
#3925
1!
#3930
0!
1#
#3935
1!
#3940
0!
b1 O!
19!
#3945
1!
b1111101 X!
b1 \!
#3950
0!
b11 O!
09!
#3955
1!
#3960
0!
#3965
1!
#3970
0!
#3975
1!
#3980
0!
#3985
1!
#3990
0!
0#
#3995
1!
#4000
0!
b10 O!
#4005
1!
#4010
0!
b0 O!
#4015
1!
#4020
0!
#4025
1!
#4030
0!
#4035
1!
#4040
0!
#4045
1!
#4050
0!
1#
#4055
1!
#4060
0!
b1 O!
19!
#4065
1!
b1111011 X!
b10 \!
#4070
0!
b11 O!
09!
#4075
1!
#4080
0!
#4085
1!
#4090
0!
#4095
1!
#4100
0!
#4105
1!
#4110
0!
0#
#4115
1!
#4120
0!
b10 O!
#4125
1!
#4130
0!
b0 O!
#4135
1!
#4140
0!
#4145
1!
#4150
0!
#4155
1!
#4160
0!
#4165
1!
#4170
0!
1#
#4175
1!
#4180
0!
b1 O!
19!
#4185
1!
b1110111 X!
b11 \!
#4190
0!
b11 O!
09!
#4195
1!
#4200
0!
#4205
1!
#4210
0!
#4215
1!
#4220
0!
#4225
1!
#4230
0!
0#
#4235
1!
#4240
0!
b10 O!
#4245
1!
#4250
0!
b0 O!
#4255
1!
#4260
0!
#4265
1!
#4270
0!
#4275
1!
#4280
0!
#4285
1!
#4290
0!
1#
#4295
1!
#4300
0!
b1 O!
19!
#4305
1!
b1101111 X!
b100 \!
#4310
0!
b11 O!
09!
#4315
1!
#4320
0!
#4325
1!
#4330
0!
#4335
1!
#4340
0!
#4345
1!
#4350
0!
0#
#4355
1!
#4360
0!
b10 O!
#4365
1!
#4370
0!
b0 O!
#4375
1!
#4380
0!
#4385
1!
#4390
0!
#4395
1!
#4400
0!
#4405
1!
#4410
0!
1#
#4415
1!
#4420
0!
b1 O!
19!
#4425
1!
b1011111 X!
b101 \!
#4430
0!
b11 O!
09!
#4435
1!
#4440
0!
#4445
1!
#4450
0!
#4455
1!
#4460
0!
#4465
1!
#4470
0!
0#
#4475
1!
#4480
0!
b10 O!
#4485
1!
#4490
0!
b0 O!
#4495
1!
#4500
0!
#4505
1!
#4510
0!
#4515
1!
#4520
0!
#4525
1!
#4530
0!
1#
#4535
1!
#4540
0!
b1 O!
19!
#4545
1!
b111111 X!
b110 \!
#4550
0!
b11 O!
09!
#4555
1!
#4560
0!
#4565
1!
#4570
0!
#4575
1!
#4580
0!
#4585
1!
#4590
0!
0#
#4595
1!
#4600
0!
b10 O!
#4605
1!
#4610
0!
b0 O!
#4615
1!
#4620
0!
0$
#4625
1!
#4630
0!
b10 N!
